[
{
    "pk": 1, 
    "model": "estoque.loja", 
    "fields": {
        "cnpj": "", 
        "nome": "Loja Azul", 
        "bairro": "Bairro 1", 
        "data_cadastro": "2014-09-16T20:10:47.424Z", 
        "fundo_de_caixa": null, 
        "cep": "", 
        "endereco": ""
    }
},
{
    "pk": 2, 
    "model": "estoque.loja", 
    "fields": {
        "cnpj": "", 
        "nome": "Loja Vermelha", 
        "bairro": "Bairro 2", 
        "data_cadastro": "2014-09-16T20:10:54.652Z", 
        "fundo_de_caixa": null, 
        "cep": "", 
        "endereco": ""
    }
},
{
    "pk": 3, 
    "model": "estoque.loja", 
    "fields": {
        "cnpj": "", 
        "nome": "Loja Rosa", 
        "bairro": "Bairro 3", 
        "data_cadastro": "2014-09-16T20:10:57.749Z", 
        "fundo_de_caixa": null, 
        "cep": "", 
        "endereco": ""
    }
}
]
