[
{
    "pk": 1, 
    "model": "auth.user", 
    "fields": {
        "username": "thiago", 
        "first_name": "", 
        "last_name": "", 
        "is_active": true, 
        "is_superuser": true, 
        "is_staff": true, 
        "last_login": "2014-09-16T16:17:29.691Z", 
        "groups": [], 
        "user_permissions": [], 
        "password": "pbkdf2_sha256$12000$MxpeQ0hlmpP7$F7a08SfybCpwZBAMSUg84TtZFakFXa2wfq+JV5G/Wcw=", 
        "email": "admin@teste.com", 
        "date_joined": "2014-09-15T16:58:40.399Z"
    }
},
{
    "pk": 2, 
    "model": "auth.user", 
    "fields": {
        "username": "nei", 
        "first_name": "", 
        "last_name": "", 
        "is_active": true, 
        "is_superuser": true, 
        "is_staff": true, 
        "last_login": "2014-09-16T16:17:29.691Z", 
        "groups": [], 
        "user_permissions": [], 
        "password": "pbkdf2_sha256$12000$MxpeQ0hlmpP7$F7a08SfybCpwZBAMSUg84TtZFakFXa2wfq+JV5G/Wcw=", 
        "email": "nei@teste.com", 
        "date_joined": "2014-09-15T16:58:40.399Z"
    }
},
{
    "pk": 3, 
    "model": "auth.user", 
    "fields": {
        "username": "gilberto", 
        "first_name": "", 
        "last_name": "", 
        "is_active": true, 
        "is_superuser": true, 
        "is_staff": true, 
        "last_login": "2014-09-16T16:17:29.691Z", 
        "groups": [], 
        "user_permissions": [], 
        "password": "pbkdf2_sha256$12000$MxpeQ0hlmpP7$F7a08SfybCpwZBAMSUg84TtZFakFXa2wfq+JV5G/Wcw=", 
        "email": "gilberto@teste.com", 
        "date_joined": "2014-09-15T16:58:40.399Z"
    }
},
{
    "pk": 4, 
    "model": "auth.user", 
    "fields": {
        "username": "paulo", 
        "first_name": "", 
        "last_name": "", 
        "is_active": true, 
        "is_superuser": true, 
        "is_staff": true, 
        "last_login": "2014-09-16T16:17:29.691Z", 
        "groups": [], 
        "user_permissions": [], 
        "password": "pbkdf2_sha256$12000$MxpeQ0hlmpP7$F7a08SfybCpwZBAMSUg84TtZFakFXa2wfq+JV5G/Wcw=", 
        "email": "paulo@teste.com", 
        "date_joined": "2014-09-15T16:58:40.399Z"
    }
}
]
